{
  "content": [
    {
      "id": 1,
      "uploadedAt": 1707345416.776000000,
      "fileName": "avwqova_2025-03-01_16:33:00_EET.pdf",
      "originalFileName": "content.pdf",
      "size": 1048576,
      "translatedToSupported": true,
      "uploadedBy": {
        "firstName": "Ivan",
        "lastName": "Krylosov",
        "email": "ivk@mail.com",
        "role": {
          "code": 1,
          "alias": "employee"
        }
      }
    },
    {
      "id": 2,
      "uploadedAt": 1707345416.776000000,
      "fileName": "avwqova_2025-03-01_16:33:00_EET.pdf",
      "originalFileName": "content.pdf",
      "size": 1048576,
      "translatedToSupported": true,
      "uploadedBy": {
        "firstName": "Ivan",
        "lastName": "Krylosov",
        "email": "ivk@mail.com",
        "role": {
          "code": 1,
          "alias": "employee"
        }
      }
    },
    {
      "id": 3,
      "uploadedAt": 1707345416.776000000,
      "fileName": "avwqova_2025-03-01_16:33:00_EET.pdf",
      "originalFileName": "content.pdf",
      "size": 1048576,
      "translatedToSupported": false,
      "uploadedBy": {
        "firstName": "Ivan",
        "lastName": "Krylosov",
        "email": "ivk@mail.com",
        "role": {
          "code": 1,
          "alias": "employee"
        }
      }
    },
    {
      "id": 4,
      "uploadedAt": 1707345416.776000000,
      "fileName": "avwqova_2025-03-01_16:33:00_EET.pdf",
      "originalFileName": "content.pdf",
      "size": 1048576,
      "translatedToSupported": false,
      "uploadedBy": {
        "firstName": "Ivan",
        "lastName": "Krylosov",
        "email": "ivk@mail.com",
        "role": {
          "code": 1,
          "alias": "employee"
        }
      }
    },
    {
      "id": 5,
      "uploadedAt": 1707345416.776000000,
      "fileName": "avwqova_2025-03-01_16:33:00_EET.pdf",
      "originalFileName": "content.pdf",
      "size": 1048576,
      "translatedToSupported": true,
      "uploadedBy": {
        "firstName": "Ivan",
        "lastName": "Krylosov",
        "email": "ivk@mail.com",
        "role": {
          "code": 1,
          "alias": "employee"
        }
      }
    },
    {
      "id": 6,
      "uploadedAt": 1707345416.776000000,
      "fileName": "avwqova_2025-03-01_16:33:00_EET.pdf",
      "originalFileName": "content.pdf",
      "size": 1048576,
      "translatedToSupported": false,
      "uploadedBy": {
        "firstName": "Ivan",
        "lastName": "Krylosov",
        "email": "ivk@mail.com",
        "role": {
          "code": 1,
          "alias": "employee"
        }
      }
    },
    {
      "id": 7,
      "uploadedAt": 1707345416.776000000,
      "fileName": "avwqova_2025-03-01_16:33:00_EET.pdf",
      "originalFileName": "content.pdf",
      "size": 1048576,
      "translatedToSupported": false,
      "uploadedBy": {
        "firstName": "Ivan",
        "lastName": "Krylosov",
        "email": "ivk@mail.com",
        "role": {
          "code": 1,
          "alias": "employee"
        }
      }
    },
    {
      "id": 8,
      "uploadedAt": 1707345416.776000000,
      "fileName": "avwqova_2025-03-01_16:33:00_EET.pdf",
      "originalFileName": "content.pdf",
      "size": 1048576,
      "translatedToSupported": false,
      "uploadedBy": {
        "firstName": "Ivan",
        "lastName": "Krylosov",
        "email": "ivk@mail.com",
        "role": {
          "code": 1,
          "alias": "employee"
        }
      }
    },
    {
      "id": 9,
      "uploadedAt": 1707345416.776000000,
      "fileName": "avwqova_2025-03-01_16:33:00_EET.pdf",
      "originalFileName": "content.pdf",
      "size": 1048576,
      "translatedToSupported": true,
      "uploadedBy": {
        "firstName": "Ivan",
        "lastName": "Krylosov",
        "email": "ivk@mail.com",
        "role": {
          "code": 1,
          "alias": "employee"
        }
      }
    },
    {
      "id": 10,
      "uploadedAt": 1707345416.776000000,
      "fileName": "avwqova_2025-03-01_16:33:00_EET.pdf",
      "originalFileName": "content.pdf",
      "size": 1048576,
      "translatedToSupported": false,
      "uploadedBy": {
        "firstName": "Ivan",
        "lastName": "Krylosov",
        "email": "ivk@mail.com",
        "role": {
          "code": 1,
          "alias": "employee"
        }
      }
    }
  ],
  "pageable": {
    "pageNumber": 0,
    "pageSize": 10,
    "sort": {
      "empty": false,
      "sorted": true,
      "unsorted": false
    },
    "offset": 0,
    "paged": true,
    "unpaged": false
  },
  "totalElements": 30,
  "last": false,
  "totalPages": 3,
  "size": 10,
  "number": 0,
  "sort": {
    "empty": false,
    "sorted": true,
    "unsorted": false
  },
  "first": true,
  "numberOfElements": 10,
  "empty": false
}